^D:\USERS\USER\DOCUMENTS\UNIANDES -  MATERIAS\FUND. INFRAESTRUCTURA\P1_INFRATEC\PROJECT1\MAIN.C
D:\USERS\USER\DOCUMENTS\UNIANDES -  MATERIAS\FUND. INFRAESTRUCTURA\P1_INFRATEC\PROJECT1\DEBUG\VC141.PDB
D:\USERS\USER\DOCUMENTS\UNIANDES -  MATERIAS\FUND. INFRAESTRUCTURA\P1_INFRATEC\PROJECT1\DEBUG\VC141.IDB
D:\USERS\USER\DOCUMENTS\UNIANDES -  MATERIAS\FUND. INFRAESTRUCTURA\P1_INFRATEC\PROJECT1\DEBUG\MAIN.OBJ
